Case Study 1
…
4. Compute the median alcohol content and international bitterness unit for each state. Plot a bar chart to compare.

#Arrange to see in desc order by ABV

beerAndBreweries2 %>% group_by(State) %>% summarize(medianABV = median(ABV), count = n()) %>% arrange(desc(medianABV)) %>% print()

## `summarise()` ungrouping output (override with `.groups` argument)

## # A tibble: 50 x 3
##    State medianABV count
##    <chr>     <dbl> <int>
##  1 ME        0.067     7
##  2 CO        0.065   146
##  3 OK        0.063    11
##  4 FL        0.062    37
##  5 GA        0.062     7
##  6 WV        0.062     2
##  7 CT        0.061     6
##  8 NC        0.061    30
##  9 NM        0.061     6
## 10 AL        0.06      9
## # ... with 40 more rows

#Arrange to see in order by IBU
beerAndBreweries2 %>% group_by(State) %>% summarize(medianIBU = median(IBU), count = n()) %>% arrange(desc(medianIBU)) %>% print()

## `summarise()` ungrouping output (override with `.groups` argument)

## # A tibble: 50 x 3
##    State medianIBU count
##    <chr>     <dbl> <int>
##  1 ME         61       7
##  2 WV         57.5     2
##  3 FL         55      37
##  4 GA         55       7
##  5 DE         52       1
##  6 NM         51       6
##  7 NH         48.5     2
##  8 DC         47.5     4
##  9 NY         47      46
## 10 AK         46      17
## # ... with 40 more rows
…
5. Which state has the maximum alcoholic (ABV) beer? Which state has the most bitter (IBU) beer?

#Arrange to see in desc order by ABV

beerAndBreweries2 %>% group_by(State) %>% summarize(maxABV = max(ABV), count = n()) %>% arrange(desc(maxABV)) %>% print(n = 1)

## `summarise()` ungrouping output (override with `.groups` argument)

## # A tibble: 50 x 3
##   State maxABV count
##   <chr>  <dbl> <int>
## 1 KY     0.125    14
## # ... with 49 more rows

#Arrange to see in order by IBU
beerAndBreweries2 %>% group_by(State) %>% summarize(maxIBU = max(IBU), count = n()) %>% arrange(desc(maxIBU)) %>% print(n = 1)

## `summarise()` ungrouping output (override with `.groups` argument)

## # A tibble: 50 x 3
##   State maxIBU count
##   <chr>  <int> <int>
## 1 OR       138    87
## # ... with 49 more rows
…
